{
  "compilerOptions": {
    // Enable top-level await, and other modern ESM features.
    "target": "ESNext",
    "module": "ESNext",
    // Enable node-style module resolution, for things like npm package imports.
    "moduleResolution": "node",
    // Enable JSON imports.
    "resolveJsonModule": true,
    // Enable stricter transpilation for better output.
    "isolatedModules": true,
    "baseUrl": ".",
    "paths": {
      "@components/*": ["src/components/*"],
      "@assets/*": ["src/assets/*"],
      "@layouts/*": ["src/layouts/*"],
      "@logic/*": ["src/logic/*"],
      "@data/*": ["data/*"]
    }
  }
}
